%YAML 1.1
%TAG !u! tag:unity3d.com,2011:
--- !u!74 &7400000
AnimationClip:
  m_ObjectHideFlags: 0
  m_CorrespondingSourceObject: {fileID: 0}
  m_PrefabInstance: {fileID: 0}
  m_PrefabAsset: {fileID: 0}
  m_Name: Die
  serializedVersion: 6
  m_Legacy: 0
  m_Compressed: 0
  m_UseHighQualityCurve: 1
  m_RotationCurves: []
  m_CompressedRotationCurves: []
  m_EulerCurves: []
  m_PositionCurves: []
  m_ScaleCurves: []
  m_FloatCurves: []
  m_PPtrCurves:
  - curve:
    - time: 0
      value: {fileID: 21300000, guid: 557a656e6847a6b4ca59b94ae9032619, type: 3}
    - time: 0.1
      value: {fileID: 21300000, guid: ecd68decf00dc58468e9e7d0636c9d03, type: 3}
    - time: 0.2
      value: {fileID: 21300000, guid: 50e4fead2346899499754e9e252a60d8, type: 3}
    - time: 0.3
      value: {fileID: 21300000, guid: f1e31a253274ae54ba0d9865f9fc7d5c, type: 3}
    - time: 0.4
      value: {fileID: 21300000, guid: 0ae381ac56ad14a4c9edd3008a99741b, type: 3}
    - time: 0.5
      value: {fileID: 21300000, guid: 42598d261bac3c84a92d47ccb8da9b78, type: 3}
    - time: 0.6
      value: {fileID: 21300000, guid: 117daa7915a1b4b4ea46e6ca2a501d87, type: 3}
    - time: 0.7
      value: {fileID: 21300000, guid: 0c0c746045bd1e3458810d5f341e71ab, type: 3}
    - time: 0.8
      value: {fileID: 21300000, guid: cde6dcef999c38041b7b18dd3b844201, type: 3}
    - time: 0.9
      value: {fileID: 21300000, guid: 089cde4a2d054424a92bd43f01f9daa5, type: 3}
    attribute: m_Sprite
    path: 
    classID: 212
    script: {fileID: 0}
  m_SampleRate: 10
  m_WrapMode: 0
  m_Bounds:
    m_Center: {x: 0, y: 0, z: 0}
    m_Extent: {x: 0, y: 0, z: 0}
  m_ClipBindingConstant:
    genericBindings:
    - serializedVersion: 2
      path: 0
      attribute: 0
      script: {fileID: 0}
      typeID: 212
      customType: 23
      isPPtrCurve: 1
    pptrCurveMapping:
    - {fileID: 21300000, guid: 557a656e6847a6b4ca59b94ae9032619, type: 3}
    - {fileID: 21300000, guid: ecd68decf00dc58468e9e7d0636c9d03, type: 3}
    - {fileID: 21300000, guid: 50e4fead2346899499754e9e252a60d8, type: 3}
    - {fileID: 21300000, guid: f1e31a253274ae54ba0d9865f9fc7d5c, type: 3}
    - {fileID: 21300000, guid: 0ae381ac56ad14a4c9edd3008a99741b, type: 3}
    - {fileID: 21300000, guid: 42598d261bac3c84a92d47ccb8da9b78, type: 3}
    - {fileID: 21300000, guid: 117daa7915a1b4b4ea46e6ca2a501d87, type: 3}
    - {fileID: 21300000, guid: 0c0c746045bd1e3458810d5f341e71ab, type: 3}
    - {fileID: 21300000, guid: cde6dcef999c38041b7b18dd3b844201, type: 3}
    - {fileID: 21300000, guid: 089cde4a2d054424a92bd43f01f9daa5, type: 3}
  m_AnimationClipSettings:
    serializedVersion: 2
    m_AdditiveReferencePoseClip: {fileID: 0}
    m_AdditiveReferencePoseTime: 0
    m_StartTime: 0
    m_StopTime: 1
    m_OrientationOffsetY: 0
    m_Level: 0
    m_CycleOffset: 0
    m_HasAdditiveReferencePose: 0
    m_LoopTime: 0
    m_LoopBlend: 0
    m_LoopBlendOrientation: 0
    m_LoopBlendPositionY: 0
    m_LoopBlendPositionXZ: 0
    m_KeepOriginalOrientation: 0
    m_KeepOriginalPositionY: 1
    m_KeepOriginalPositionXZ: 0
    m_HeightFromFeet: 0
    m_Mirror: 0
  m_EditorCurves: []
  m_EulerEditorCurves: []
  m_HasGenericRootTransform: 0
  m_HasMotionFloatCurves: 0
  m_Events: []
