%YAML 1.1
%TAG !u! tag:unity3d.com,2011:
--- !u!74 &7400000
AnimationClip:
  m_ObjectHideFlags: 0
  m_CorrespondingSourceObject: {fileID: 0}
  m_PrefabInstance: {fileID: 0}
  m_PrefabAsset: {fileID: 0}
  m_Name: Jump
  serializedVersion: 6
  m_Legacy: 0
  m_Compressed: 0
  m_UseHighQualityCurve: 1
  m_RotationCurves: []
  m_CompressedRotationCurves: []
  m_EulerCurves: []
  m_PositionCurves: []
  m_ScaleCurves: []
  m_FloatCurves: []
  m_PPtrCurves:
  - curve:
    - time: 0
      value: {fileID: 21300000, guid: ed469b36c7cc84747bbe3c475ca45303, type: 3}
    - time: 0.125
      value: {fileID: 21300000, guid: 07bdaabed95318843940c181d4296614, type: 3}
    - time: 0.25
      value: {fileID: 21300000, guid: bf55b15bad8d98f4a86d86a123255ed3, type: 3}
    - time: 0.375
      value: {fileID: 21300000, guid: 3ea603e6fd7532845bc59e1f633b714e, type: 3}
    - time: 0.5
      value: {fileID: 21300000, guid: ca6d4ef1edddf8741b80c0a57ce9fca0, type: 3}
    attribute: m_Sprite
    path: 
    classID: 212
    script: {fileID: 0}
  m_SampleRate: 8
  m_WrapMode: 0
  m_Bounds:
    m_Center: {x: 0, y: 0, z: 0}
    m_Extent: {x: 0, y: 0, z: 0}
  m_ClipBindingConstant:
    genericBindings:
    - serializedVersion: 2
      path: 0
      attribute: 0
      script: {fileID: 0}
      typeID: 212
      customType: 23
      isPPtrCurve: 1
    pptrCurveMapping:
    - {fileID: 21300000, guid: ed469b36c7cc84747bbe3c475ca45303, type: 3}
    - {fileID: 21300000, guid: 07bdaabed95318843940c181d4296614, type: 3}
    - {fileID: 21300000, guid: bf55b15bad8d98f4a86d86a123255ed3, type: 3}
    - {fileID: 21300000, guid: 3ea603e6fd7532845bc59e1f633b714e, type: 3}
    - {fileID: 21300000, guid: ca6d4ef1edddf8741b80c0a57ce9fca0, type: 3}
  m_AnimationClipSettings:
    serializedVersion: 2
    m_AdditiveReferencePoseClip: {fileID: 0}
    m_AdditiveReferencePoseTime: 0
    m_StartTime: 0
    m_StopTime: 0.625
    m_OrientationOffsetY: 0
    m_Level: 0
    m_CycleOffset: 0
    m_HasAdditiveReferencePose: 0
    m_LoopTime: 0
    m_LoopBlend: 0
    m_LoopBlendOrientation: 0
    m_LoopBlendPositionY: 0
    m_LoopBlendPositionXZ: 0
    m_KeepOriginalOrientation: 0
    m_KeepOriginalPositionY: 1
    m_KeepOriginalPositionXZ: 0
    m_HeightFromFeet: 0
    m_Mirror: 0
  m_EditorCurves: []
  m_EulerEditorCurves: []
  m_HasGenericRootTransform: 0
  m_HasMotionFloatCurves: 0
  m_Events: []
