%YAML 1.1
%TAG !u! tag:unity3d.com,2011:
--- !u!74 &7400000
AnimationClip:
  m_ObjectHideFlags: 0
  m_CorrespondingSourceObject: {fileID: 0}
  m_PrefabInstance: {fileID: 0}
  m_PrefabAsset: {fileID: 0}
  m_Name: Die
  serializedVersion: 6
  m_Legacy: 0
  m_Compressed: 0
  m_UseHighQualityCurve: 1
  m_RotationCurves: []
  m_CompressedRotationCurves: []
  m_EulerCurves: []
  m_PositionCurves: []
  m_ScaleCurves: []
  m_FloatCurves: []
  m_PPtrCurves:
  - curve:
    - time: 0
      value: {fileID: 21300000, guid: 19d48425db600e4419aaf430d0ea45be, type: 3}
    - time: 0.1
      value: {fileID: 21300000, guid: 2b6e712635b911e48ab864df333195b1, type: 3}
    - time: 0.2
      value: {fileID: 21300000, guid: b9789beeaac281d4abee0e8db0d71aeb, type: 3}
    - time: 0.3
      value: {fileID: 21300000, guid: 5abed5d6a0fc7ae4d82a301517459b38, type: 3}
    - time: 0.4
      value: {fileID: 21300000, guid: 78694b28a942f1d408fe97dc4fce1ac8, type: 3}
    - time: 0.5
      value: {fileID: 21300000, guid: 2ab46cc421af39c4b9d2db6e1c69f552, type: 3}
    - time: 0.6
      value: {fileID: 21300000, guid: 9170fc7e7e655ec49adb1f388d7152e4, type: 3}
    - time: 0.7
      value: {fileID: 21300000, guid: d6cf7173cb1db524a8e2b28bfa94155f, type: 3}
    - time: 0.8
      value: {fileID: 21300000, guid: ad5c5209b7adce242a9a5a8c8a5fa02c, type: 3}
    - time: 0.9
      value: {fileID: 21300000, guid: f81313c139da45442880d4912aa559a0, type: 3}
    attribute: m_Sprite
    path: 
    classID: 212
    script: {fileID: 0}
  m_SampleRate: 10
  m_WrapMode: 0
  m_Bounds:
    m_Center: {x: 0, y: 0, z: 0}
    m_Extent: {x: 0, y: 0, z: 0}
  m_ClipBindingConstant:
    genericBindings:
    - serializedVersion: 2
      path: 0
      attribute: 0
      script: {fileID: 0}
      typeID: 212
      customType: 23
      isPPtrCurve: 1
    pptrCurveMapping:
    - {fileID: 21300000, guid: 19d48425db600e4419aaf430d0ea45be, type: 3}
    - {fileID: 21300000, guid: 2b6e712635b911e48ab864df333195b1, type: 3}
    - {fileID: 21300000, guid: b9789beeaac281d4abee0e8db0d71aeb, type: 3}
    - {fileID: 21300000, guid: 5abed5d6a0fc7ae4d82a301517459b38, type: 3}
    - {fileID: 21300000, guid: 78694b28a942f1d408fe97dc4fce1ac8, type: 3}
    - {fileID: 21300000, guid: 2ab46cc421af39c4b9d2db6e1c69f552, type: 3}
    - {fileID: 21300000, guid: 9170fc7e7e655ec49adb1f388d7152e4, type: 3}
    - {fileID: 21300000, guid: d6cf7173cb1db524a8e2b28bfa94155f, type: 3}
    - {fileID: 21300000, guid: ad5c5209b7adce242a9a5a8c8a5fa02c, type: 3}
    - {fileID: 21300000, guid: f81313c139da45442880d4912aa559a0, type: 3}
  m_AnimationClipSettings:
    serializedVersion: 2
    m_AdditiveReferencePoseClip: {fileID: 0}
    m_AdditiveReferencePoseTime: 0
    m_StartTime: 0
    m_StopTime: 1
    m_OrientationOffsetY: 0
    m_Level: 0
    m_CycleOffset: 0
    m_HasAdditiveReferencePose: 0
    m_LoopTime: 0
    m_LoopBlend: 0
    m_LoopBlendOrientation: 0
    m_LoopBlendPositionY: 0
    m_LoopBlendPositionXZ: 0
    m_KeepOriginalOrientation: 0
    m_KeepOriginalPositionY: 1
    m_KeepOriginalPositionXZ: 0
    m_HeightFromFeet: 0
    m_Mirror: 0
  m_EditorCurves: []
  m_EulerEditorCurves: []
  m_HasGenericRootTransform: 0
  m_HasMotionFloatCurves: 0
  m_Events: []
