%YAML 1.1
%TAG !u! tag:unity3d.com,2011:
--- !u!74 &7400000
AnimationClip:
  m_ObjectHideFlags: 0
  m_CorrespondingSourceObject: {fileID: 0}
  m_PrefabInstance: {fileID: 0}
  m_PrefabAsset: {fileID: 0}
  m_Name: Die
  serializedVersion: 6
  m_Legacy: 0
  m_Compressed: 0
  m_UseHighQualityCurve: 1
  m_RotationCurves: []
  m_CompressedRotationCurves: []
  m_EulerCurves: []
  m_PositionCurves: []
  m_ScaleCurves: []
  m_FloatCurves: []
  m_PPtrCurves:
  - curve:
    - time: 0
      value: {fileID: 21300000, guid: e6521c90178645e4d92d99d7c0aa7866, type: 3}
    - time: 0.1
      value: {fileID: 21300000, guid: 88f8caa56ec782e4280cd51ed586591b, type: 3}
    - time: 0.2
      value: {fileID: 21300000, guid: 2031ab32bb9afdc4bbc6a2b21c7118a6, type: 3}
    - time: 0.3
      value: {fileID: 21300000, guid: e673bdddfd385134ba2eaa0ec47904fc, type: 3}
    - time: 0.4
      value: {fileID: 21300000, guid: d600001d72e07d7489355a84063b6f2e, type: 3}
    - time: 0.5
      value: {fileID: 21300000, guid: 54483e4b8b5f40b4a8cf970711f30cc3, type: 3}
    - time: 0.6
      value: {fileID: 21300000, guid: 29f2dfe6441a8224ea946fd0cc1eda64, type: 3}
    - time: 0.7
      value: {fileID: 21300000, guid: d2901bed85426f2499a59e84b1c214d2, type: 3}
    - time: 0.8
      value: {fileID: 21300000, guid: d4d728d5dced10f448bb240412e49ca6, type: 3}
    - time: 0.9
      value: {fileID: 21300000, guid: 828251af37e28dc4fbc225fdb720ea1a, type: 3}
    attribute: m_Sprite
    path: 
    classID: 212
    script: {fileID: 0}
  m_SampleRate: 10
  m_WrapMode: 0
  m_Bounds:
    m_Center: {x: 0, y: 0, z: 0}
    m_Extent: {x: 0, y: 0, z: 0}
  m_ClipBindingConstant:
    genericBindings:
    - serializedVersion: 2
      path: 0
      attribute: 0
      script: {fileID: 0}
      typeID: 212
      customType: 23
      isPPtrCurve: 1
    pptrCurveMapping:
    - {fileID: 21300000, guid: e6521c90178645e4d92d99d7c0aa7866, type: 3}
    - {fileID: 21300000, guid: 88f8caa56ec782e4280cd51ed586591b, type: 3}
    - {fileID: 21300000, guid: 2031ab32bb9afdc4bbc6a2b21c7118a6, type: 3}
    - {fileID: 21300000, guid: e673bdddfd385134ba2eaa0ec47904fc, type: 3}
    - {fileID: 21300000, guid: d600001d72e07d7489355a84063b6f2e, type: 3}
    - {fileID: 21300000, guid: 54483e4b8b5f40b4a8cf970711f30cc3, type: 3}
    - {fileID: 21300000, guid: 29f2dfe6441a8224ea946fd0cc1eda64, type: 3}
    - {fileID: 21300000, guid: d2901bed85426f2499a59e84b1c214d2, type: 3}
    - {fileID: 21300000, guid: d4d728d5dced10f448bb240412e49ca6, type: 3}
    - {fileID: 21300000, guid: 828251af37e28dc4fbc225fdb720ea1a, type: 3}
  m_AnimationClipSettings:
    serializedVersion: 2
    m_AdditiveReferencePoseClip: {fileID: 0}
    m_AdditiveReferencePoseTime: 0
    m_StartTime: 0
    m_StopTime: 1
    m_OrientationOffsetY: 0
    m_Level: 0
    m_CycleOffset: 0
    m_HasAdditiveReferencePose: 0
    m_LoopTime: 0
    m_LoopBlend: 0
    m_LoopBlendOrientation: 0
    m_LoopBlendPositionY: 0
    m_LoopBlendPositionXZ: 0
    m_KeepOriginalOrientation: 0
    m_KeepOriginalPositionY: 1
    m_KeepOriginalPositionXZ: 0
    m_HeightFromFeet: 0
    m_Mirror: 0
  m_EditorCurves: []
  m_EulerEditorCurves: []
  m_HasGenericRootTransform: 0
  m_HasMotionFloatCurves: 0
  m_Events: []
